{
    "installed": {
        "client_id": "38414000887-4bu13ek26i957cq6vsbfgj7orpi8r83f.apps.googleusercontent.com",
        "client_secret": "jsk3o2iOxK6koz-_KOkOl8eR",
        "redirect_uris": [
            "urn:ietf:wg:oauth:2.0:oob",
            "http://localhost"
        ],
        "auth_uri": "https://accounts.google.com/o/oauth2/auth",
        "token_uri": "https://accounts.google.com/o/oauth2/token"
    }
}

