{
    "email_address": "38414000887-j9oivd4h230iorcko70fvvvp6iv5h00m@developer.gserviceaccount.com",
    "key_file": "estorm_car-0018aceeff70.p12",
    "reports": {
        "all_traffic": {
            "report_name": "All Traffic",
            "dimensions": "ga:source,ga:medium,ga:landingPagePath",
            "metrics": "ga:sessions,ga:percentNewSessions,ga:newUsers,ga:bounceRate,ga:pageviewsPerSession,ga:avgSessionDuration,ga:goal1Completions,ga:goal1ConversionRate"
        },
        "content_drilldown": {
            "report_name": "Content Drilldown",
            "dimensions": "ga:pagePathLevel1,ga:pagePathLevel2,ga:pagePathLevel3",
            "metrics": "ga:pageviews,ga:uniquePageviews,ga:bounceRate,ga:avgTimeOnPage,ga:exitRate"
        },
        "exit_pages": {
            "report_name": "Exit Pages",
            "dimensions": "ga:pagePath,ga:landingPagePath",
            "metrics": "ga:pageviews,ga:exits,ga:exitRate"
        },
        "goal_flow": {
            "report_name": "Goal Flow",
            "dimensions": "ga:source,ga:medium",
            "metrics": "ga:goal1Starts,ga:goal1Completions,ga:exits,ga:exitRate"
        },
        "top_events": {
            "report_name": "Top Events",
            "dimensions": "ga:eventCategory,ga:eventLabel,ga:eventAction",
            "metrics": "ga:totalEvents,ga:uniqueEvents"
        },
        "technology": {
            "report_name": "Technology",
            "dimensions": "ga:browser,ga:deviceCategory",
            "metrics": "ga:sessions,ga:percentNewSessions,ga:newUsers,ga:bounceRate,ga:pageviewsPerSession,ga:avgSessionDuration,ga:goal1Completions,ga:goal1ConversionRate"
        },
        "mobile": {
            "report_name": "Mobile",
            "dimensions": "ga:mobileDeviceInfo",
            "metrics": "ga:sessions,ga:percentNewSessions,ga:newUsers,ga:bounceRate,ga:pageviewsPerSession,ga:avgSessionDuration,ga:goal1Completions,ga:goal1ConversionRate"
        },
        "landing_page_dropoff": {
            "report_name": "Landing Page Dropoff",
            "dimensions": "ga:exitPagePath,ga:landingPagePath",
            "metrics": "ga:goal1Completions,ga:goal1ConversionRate,ga:goal1Abandons,ga:goal1AbandonRate,ga:exits,ga:entrances,ga:entranceRate"
        }
    },
    "accounts": {
        "FF Malaysia": {
            "UA-37862131-1": {
                "ga_property_name": "FF Malaysia",
                "views": {
                    "ga:77673439": {
                        "ga_view": "MY (Old View 1)",
                        "report_start": "2013-10-01",
                        "report_end": "2014-01-31",
                        "reports": [
                            "all_traffic",
                            "content_drilldown",
                            "exit_pages",
                            "goal_flow",
                            "top_events",
                            "technology",
                            "mobile",
                            "landing_page_dropoff"
                        ]
                    },
                    "ga:81387545": {
                        "ga_view": "MY (Old View 2)",
                        "report_start": "2014-02-01",
                        "report_end": "2014-04-30",
                        "reports": [
                            "all_traffic",
                            "content_drilldown",
                            "exit_pages",
                            "goal_flow",
                            "top_events",
                            "technology",
                            "mobile",
                            "landing_page_dropoff"
                        ]
                    },
                    "ga:86170911": {
                        "ga_view": "MY (New View)",
                        "report_start": "2014-05-01",
                        "report_end": "2014-11-19",
                        "reports": [
                            "all_traffic",
                            "content_drilldown",
                            "exit_pages",
                            "goal_flow",
                            "top_events",
                            "technology",
                            "mobile",
                            "landing_page_dropoff"
                        ]
                    },
                    "ga:94122324": {
                        "ga_view": "MY (New View Free Trial Nov 2014)",
                        "report_start": "2014-11-20",
                        "report_end": "",
                        "reports": [
                            "all_traffic",
                            "content_drilldown",
                            "exit_pages",
                            "goal_flow",
                            "top_events",
                            "technology",
                            "mobile",
                            "landing_page_dropoff"
                        ]
                    }
                }
            }
        },
        "FF Hong Kong": {
            "UA-37859644-1": {
                "ga_property_name": "FF Hong Kong",
                "views": {
                    "ga:77673129": {
                        "ga_view": "HK (Old View 1)",
                        "report_start": "2013-10-01",
                        "report_end": "2014-04-30",
                        "reports": [
                            "all_traffic",
                            "content_drilldown",
                            "exit_pages",
                            "goal_flow",
                            "top_events",
                            "technology",
                            "mobile",
                            "landing_page_dropoff"
                        ]
                    },
                    "ga:86166799": {
                        "ga_view": "HK (New View)",
                        "report_start": "2014-05-01",
                        "report_end": "2014-11-19",
                        "reports": [
                            "all_traffic",
                            "content_drilldown",
                            "exit_pages",
                            "goal_flow",
                            "top_events",
                            "technology",
                            "mobile",
                            "landing_page_dropoff"
                        ]
                    },
                    "ga:94111733": {
                        "ga_view": "HK (New View Free Trial Nov 2014)",
                        "report_start": "2014-11-20",
                        "report_end": "",
                        "reports": [
                            "all_traffic",
                            "content_drilldown",
                            "exit_pages",
                            "goal_flow",
                            "top_events",
                            "technology",
                            "mobile",
                            "landing_page_dropoff"
                        ]
                    }
                }
            }
        },
        "FF Philippines": {
            "UA-37855171-1": {
                "ga_property_name": "FF Philippines",
                "views": {
                    "ga:77670142": {
                        "ga_view": "PH (Old View 1)",
                        "report_start": "2013-10-01",
                        "report_end": "2013-11-30",
                        "reports": [
                            "all_traffic",
                            "content_drilldown",
                            "exit_pages",
                            "goal_flow",
                            "top_events",
                            "technology",
                            "mobile",
                            "landing_page_dropoff"
                        ]
                    },
                    "ga:79367940": {
                        "ga_view": "PH (Old View 2)",
                        "report_start": "2013-12-01",
                        "report_end": "2014-01-31",
                        "reports": [
                            "all_traffic",
                            "content_drilldown",
                            "exit_pages",
                            "goal_flow",
                            "top_events",
                            "technology",
                            "mobile",
                            "landing_page_dropoff"
                        ]
                    },
                    "ga:81466819": {
                        "ga_view": "PH (Old View 3)",
                        "report_start": "2014-02-01",
                        "report_end": "2014-05-31",
                        "reports": [
                            "all_traffic",
                            "content_drilldown",
                            "exit_pages",
                            "goal_flow",
                            "top_events",
                            "technology",
                            "mobile",
                            "landing_page_dropoff"
                        ]
                    },
                    "ga:86171110": {
                        "ga_view": "PH (New View)",
                        "report_start": "2014-06-01",
                        "report_end": "2014-11-19",
                        "reports": [
                            "all_traffic",
                            "content_drilldown",
                            "exit_pages",
                            "goal_flow",
                            "top_events",
                            "technology",
                            "mobile",
                            "landing_page_dropoff"
                        ]
                    },
                    "ga:94127021": {
                        "ga_view": "PH (New View Free Trial Nov 2014)",
                        "report_start": "2014-11-19",
                        "report_end": "",
                        "reports": [
                            "all_traffic",
                            "content_drilldown",
                            "exit_pages",
                            "goal_flow",
                            "top_events",
                            "technology",
                            "mobile",
                            "landing_page_dropoff"
                        ]
                    }
                }
            }
        }
    }
}