{
    "email_address": "287353591084-dp3dl82onie0vuhqqhp6ilgfmtl9cbe5@developer.gserviceaccount.com",
    "key_file": "Estorm Analytics API Access-1f3088013aa7.p12",
    "reports": {
        "all_traffic": {
            "report_name": "All Traffic",
            "dimensions": "ga:source,ga:medium,ga:landingPagePath",
            "metrics": "ga:sessions,ga:percentNewSessions,ga:newUsers,ga:bounceRate,ga:pageviewsPerSession,ga:avgSessionDuration,ga:goal1Completions,ga:goal1ConversionRate"
        },
        "all_traffic_goal2": {
            "report_name": "All Traffic - Goal 2",
            "dimensions": "ga:source,ga:medium,ga:landingPagePath",
            "metrics": "ga:sessions,ga:percentNewSessions,ga:newUsers,ga:bounceRate,ga:pageviewsPerSession,ga:avgSessionDuration,ga:goal2Completions,ga:goal2ConversionRate"
        },
        "all_traffic_goal3": {
            "report_name": "All Traffic - Goal 3",
            "dimensions": "ga:source,ga:medium,ga:landingPagePath",
            "metrics": "ga:sessions,ga:percentNewSessions,ga:newUsers,ga:bounceRate,ga:pageviewsPerSession,ga:avgSessionDuration,ga:goal3Completions,ga:goal3ConversionRate"
        },
        "all_traffic_goal4": {
            "report_name": "All Traffic - Goal 4",
            "dimensions": "ga:source,ga:medium,ga:landingPagePath",
            "metrics": "ga:sessions,ga:percentNewSessions,ga:newUsers,ga:bounceRate,ga:pageviewsPerSession,ga:avgSessionDuration,ga:goal4Completions,ga:goal4ConversionRate"
        },
        "all_traffic_goal5": {
            "report_name": "All Traffic - Goal 5",
            "dimensions": "ga:source,ga:medium,ga:landingPagePath",
            "metrics": "ga:sessions,ga:percentNewSessions,ga:newUsers,ga:bounceRate,ga:pageviewsPerSession,ga:avgSessionDuration,ga:goal5Completions,ga:goal5ConversionRate"
        },
        "all_traffic_goal6": {
            "report_name": "All Traffic - Goal 6",
            "dimensions": "ga:source,ga:medium,ga:landingPagePath",
            "metrics": "ga:sessions,ga:percentNewSessions,ga:newUsers,ga:bounceRate,ga:pageviewsPerSession,ga:avgSessionDuration,ga:goal6Completions,ga:goal6ConversionRate"
        },
        "content_drilldown": {
            "report_name": "Content Drilldown",
            "dimensions": "ga:pagePathLevel1,ga:pagePathLevel2,ga:pagePathLevel3",
            "metrics": "ga:pageviews,ga:uniquePageviews,ga:bounceRate,ga:avgTimeOnPage,ga:exitRate"
        },
        "exit_pages": {
            "report_name": "Exit Pages",
            "dimensions": "ga:pagePath,ga:landingPagePath",
            "metrics": "ga:pageviews,ga:exits,ga:exitRate"
        },
        "goal_flow": {
            "report_name": "Goal Flow",
            "dimensions": "ga:source,ga:medium",
            "metrics": "ga:goal1Starts,ga:goal1Completions,ga:exits,ga:exitRate"
        },
        "goal_flow": {
            "report_name": "Goal Flow",
            "dimensions": "ga:source,ga:medium",
            "metrics": "ga:goal1Starts,ga:goal1Completions,ga:exits,ga:exitRate"
        },
        "goal_flow_goal2": {
            "report_name": "Goal Flow - Goal 2",
            "dimensions": "ga:source,ga:medium",
            "metrics": "ga:goal2Starts,ga:goal2Completions,ga:exits,ga:exitRate"
        },
        "goal_flow_goal3": {
            "report_name": "Goal Flow - Goal 3",
            "dimensions": "ga:source,ga:medium",
            "metrics": "ga:goal3Starts,ga:goal3Completions,ga:exits,ga:exitRate"
        },
        "goal_flow_goal4": {
            "report_name": "Goal Flow - Goal 4",
            "dimensions": "ga:source,ga:medium",
            "metrics": "ga:goal4Starts,ga:goal4Completions,ga:exits,ga:exitRate"
        },
        "goal_flow_goal5": {
            "report_name": "Goal Flow - Goal 5",
            "dimensions": "ga:source,ga:medium",
            "metrics": "ga:goal5Starts,ga:goal5Completions,ga:exits,ga:exitRate"
        },
        "goal_flow_goal6": {
            "report_name": "Goal Flow - Goal 6",
            "dimensions": "ga:source,ga:medium",
            "metrics": "ga:goal6Starts,ga:goal6Completions,ga:exits,ga:exitRate"
        },
        "technology": {
            "report_name": "Technology",
            "dimensions": "ga:browser,ga:deviceCategory",
            "metrics": "ga:sessions,ga:percentNewSessions,ga:newUsers,ga:bounceRate,ga:pageviewsPerSession,ga:avgSessionDuration,ga:goal1Completions,ga:goal1ConversionRate"
        },
        "technology_goal2": {
            "report_name": "Technology - Goal 2",
            "dimensions": "ga:browser,ga:deviceCategory",
            "metrics": "ga:sessions,ga:percentNewSessions,ga:newUsers,ga:bounceRate,ga:pageviewsPerSession,ga:avgSessionDuration,ga:goal2Completions,ga:goal2ConversionRate"
        },
        "technology_goal3": {
            "report_name": "Technology - Goal 3",
            "dimensions": "ga:browser,ga:deviceCategory",
            "metrics": "ga:sessions,ga:percentNewSessions,ga:newUsers,ga:bounceRate,ga:pageviewsPerSession,ga:avgSessionDuration,ga:goal3Completions,ga:goal3ConversionRate"
        },
        "technology_goal4": {
            "report_name": "Technology - Goal 4",
            "dimensions": "ga:browser,ga:deviceCategory",
            "metrics": "ga:sessions,ga:percentNewSessions,ga:newUsers,ga:bounceRate,ga:pageviewsPerSession,ga:avgSessionDuration,ga:goal4Completions,ga:goal4ConversionRate"
        },
        "technology_goal5": {
            "report_name": "Technology - Goal 5",
            "dimensions": "ga:browser,ga:deviceCategory",
            "metrics": "ga:sessions,ga:percentNewSessions,ga:newUsers,ga:bounceRate,ga:pageviewsPerSession,ga:avgSessionDuration,ga:goal5Completions,ga:goal5ConversionRate"
        },
        "technology_goal6": {
            "report_name": "Technology - Goal 6",
            "dimensions": "ga:browser,ga:deviceCategory",
            "metrics": "ga:sessions,ga:percentNewSessions,ga:newUsers,ga:bounceRate,ga:pageviewsPerSession,ga:avgSessionDuration,ga:goal6Completions,ga:goal6ConversionRate"
        },
        "top_events": {
            "report_name": "Top Events",
            "dimensions": "ga:eventCategory,ga:eventLabel,ga:eventAction",
            "metrics": "ga:totalEvents,ga:uniqueEvents"
        },
        "technology": {
            "report_name": "Technology",
            "dimensions": "ga:browser,ga:deviceCategory",
            "metrics": "ga:sessions,ga:percentNewSessions,ga:newUsers,ga:bounceRate,ga:pageviewsPerSession,ga:avgSessionDuration,ga:goal1Completions,ga:goal1ConversionRate"
        },
        "mobile": {
            "report_name": "Mobile",
            "dimensions": "ga:mobileDeviceInfo",
            "metrics": "ga:sessions,ga:percentNewSessions,ga:newUsers,ga:bounceRate,ga:pageviewsPerSession,ga:avgSessionDuration,ga:goal1Completions,ga:goal1ConversionRate"
        },
        "mobile_goal2": {
            "report_name": "Mobile - Goal 2",
            "dimensions": "ga:mobileDeviceInfo",
            "metrics": "ga:sessions,ga:percentNewSessions,ga:newUsers,ga:bounceRate,ga:pageviewsPerSession,ga:avgSessionDuration,ga:goal2Completions,ga:goal2ConversionRate"
        },
        "mobile_goal3": {
            "report_name": "Mobile - Goal 3",
            "dimensions": "ga:mobileDeviceInfo",
            "metrics": "ga:sessions,ga:percentNewSessions,ga:newUsers,ga:bounceRate,ga:pageviewsPerSession,ga:avgSessionDuration,ga:goal3Completions,ga:goal3ConversionRate"
        },
        "mobile_goal4": {
            "report_name": "Mobile - Goal 4",
            "dimensions": "ga:mobileDeviceInfo",
            "metrics": "ga:sessions,ga:percentNewSessions,ga:newUsers,ga:bounceRate,ga:pageviewsPerSession,ga:avgSessionDuration,ga:goal4Completions,ga:goal4ConversionRate"
        },
        "mobile_goal5": {
            "report_name": "Mobile - Goal 5",
            "dimensions": "ga:mobileDeviceInfo",
            "metrics": "ga:sessions,ga:percentNewSessions,ga:newUsers,ga:bounceRate,ga:pageviewsPerSession,ga:avgSessionDuration,ga:goal5Completions,ga:goal5ConversionRate"
        },
        "mobile_goal6": {
            "report_name": "Mobile - Goal 6",
            "dimensions": "ga:mobileDeviceInfo",
            "metrics": "ga:sessions,ga:percentNewSessions,ga:newUsers,ga:bounceRate,ga:pageviewsPerSession,ga:avgSessionDuration,ga:goal6Completions,ga:goal6ConversionRate"
        },
        "mobile": {
            "report_name": "Mobile",
            "dimensions": "ga:mobileDeviceInfo",
            "metrics": "ga:sessions,ga:percentNewSessions,ga:newUsers,ga:bounceRate,ga:pageviewsPerSession,ga:avgSessionDuration,ga:goal1Completions,ga:goal1ConversionRate"
        },
        "landing_page_dropoff": {
            "report_name": "Landing Page Dropoff",
            "dimensions": "ga:exitPagePath,ga:landingPagePath",
            "metrics": "ga:goal1Completions,ga:goal1ConversionRate,ga:goal1Abandons,ga:goal1AbandonRate,ga:exits,ga:entrances,ga:entranceRate"
        },
        "landing_page_dropoff_goal2": {
            "report_name": "Landing Page Dropoff - Goal 2",
            "dimensions": "ga:exitPagePath,ga:landingPagePath",
            "metrics": "ga:goal2Completions,ga:goal2ConversionRate,ga:goal2Abandons,ga:goal2AbandonRate,ga:exits,ga:entrances,ga:entranceRate"
        },
        "landing_page_dropoff_goal3": {
            "report_name": "Landing Page Dropoff - Goal 3",
            "dimensions": "ga:exitPagePath,ga:landingPagePath",
            "metrics": "ga:goal3Completions,ga:goal3ConversionRate,ga:goal3Abandons,ga:goal3AbandonRate,ga:exits,ga:entrances,ga:entranceRate"
        },
        "landing_page_dropoff_goal4": {
            "report_name": "Landing Page Dropoff - Goal 4",
            "dimensions": "ga:exitPagePath,ga:landingPagePath",
            "metrics": "ga:goal4Completions,ga:goal4ConversionRate,ga:goal4Abandons,ga:goal4AbandonRate,ga:exits,ga:entrances,ga:entranceRate"
        },
        "landing_page_dropoff_goal5": {
            "report_name": "Landing Page Dropoff - Goal 5",
            "dimensions": "ga:exitPagePath,ga:landingPagePath",
            "metrics": "ga:goal5Completions,ga:goal5ConversionRate,ga:goal5Abandons,ga:goal5AbandonRate,ga:exits,ga:entrances,ga:entranceRate"
        },
        "landing_page_dropoff_goal6": {
            "report_name": "Landing Page Dropoff - Goal 6",
            "dimensions": "ga:exitPagePath,ga:landingPagePath",
            "metrics": "ga:goal6Completions,ga:goal6ConversionRate,ga:goal6Abandons,ga:goal6AbandonRate,ga:exits,ga:entrances,ga:entranceRate"
        },
        "paid_ads_report_goal1": {
            "report_name": "Paid Ads - Goal 1",
            "dimensions": "ga:source,ga:medium,ga:keyword,ga:adContent,ga:campaign,ga:deviceCategory,ga:date",
            "metrics": "ga:sessions,ga:percentNewSessions,ga:newUsers,ga:bounceRate,ga:avgSessionDuration,ga:goal1Completions,ga:goal1ConversionRate,ga:goal1AbandonRate"
        },
        "paid_ads_report_goal2": {
            "report_name": "Paid Ads - Goal 2",
            "dimensions": "ga:source,ga:medium,ga:keyword,ga:adContent,ga:campaign,ga:deviceCategory,ga:date",
            "metrics": "ga:sessions,ga:percentNewSessions,ga:newUsers,ga:bounceRate,ga:avgSessionDuration,ga:goal2Completions,ga:goal2ConversionRate,ga:goal2AbandonRate"
        },
        "paid_ads_report_goal3": {
            "report_name": "Paid Ads - Goal 3",
            "dimensions": "ga:source,ga:medium,ga:keyword,ga:adContent,ga:campaign,ga:deviceCategory,ga:date",
            "metrics": "ga:sessions,ga:percentNewSessions,ga:newUsers,ga:bounceRate,ga:avgSessionDuration,ga:goal3Completions,ga:goal3ConversionRate,ga:goal3AbandonRate"
        },
        "paid_ads_report_goal4": {
            "report_name": "Paid Ads - Goal 4",
            "dimensions": "ga:source,ga:medium,ga:keyword,ga:adContent,ga:campaign,ga:deviceCategory,ga:date",
            "metrics": "ga:sessions,ga:percentNewSessions,ga:newUsers,ga:bounceRate,ga:avgSessionDuration,ga:goal4Completions,ga:goal4ConversionRate,ga:goal4AbandonRate"
        },
        "paid_ads_report_goal5": {
            "report_name": "Paid Ads - Goal 5",
            "dimensions": "ga:source,ga:medium,ga:keyword,ga:adContent,ga:campaign,ga:deviceCategory,ga:date",
            "metrics": "ga:sessions,ga:percentNewSessions,ga:newUsers,ga:bounceRate,ga:avgSessionDuration,ga:goal5Completions,ga:goal5ConversionRate,ga:goal5AbandonRate"
        },
        "paid_ads_report_goal6": {
            "report_name": "Paid Ads - Goal 6",
            "dimensions": "ga:source,ga:medium,ga:keyword,ga:adContent,ga:campaign,ga:deviceCategory,ga:date",
            "metrics": "ga:sessions,ga:percentNewSessions,ga:newUsers,ga:bounceRate,ga:avgSessionDuration,ga:goal6Completions,ga:goal6ConversionRate,ga:goal6AbandonRate"
        }
    },
    "accounts": {
        "Turner NBA": {
            "UA-59627206-1": {
                "ga_property_name": "NBA League Pass",
                "views": {
                    "ga:97769207": {
                        "ga_view": "All Web Site Data",
                        "report_start": "2015-02-20",
                        "report_end": "",
                        "reports": [
                            "all_traffic",
                            "all_traffic_goal2",
                            "all_traffic_goal3",
                            "all_traffic_goal4",
                            "all_traffic_goal5",
                            "all_traffic_goal6",
                            "content_drilldown",
                            "exit_pages",
                            "goal_flow",
                            "goal_flow_goal2",
                            "goal_flow_goal3",
                            "goal_flow_goal4",
                            "goal_flow_goal5",
                            "goal_flow_goal6",
                            "top_events",
                            "technology",
                            "technology_goal2",
                            "technology_goal3",
                            "technology_goal4",
                            "technology_goal5",
                            "technology_goal6",
                            "mobile",
                            "mobile_goal2",
                            "mobile_goal3",
                            "mobile_goal4",
                            "mobile_goal5",
                            "mobile_goal6",
                            "landing_page_dropoff",
                            "landing_page_dropoff_goal2",
                            "landing_page_dropoff_goal3",
                            "landing_page_dropoff_goal4",
                            "landing_page_dropoff_goal5",
                            "landing_page_dropoff_goal6",
                            "paid_ads_report_goal1",
                            "paid_ads_report_goal2",
                            "paid_ads_report_goal3",
                            "paid_ads_report_goal4",
                            "paid_ads_report_goal5",
                            "paid_ads_report_goal6"
                        ]
                    }
                }
            }
        }
    }
}